<svg width="102" height="61" viewBox="0 0 102 61" fill="none" xmlns="http://www.w3.org/2000/svg">
<path d="M42.6848 23.816C42.6848 23.816 32.2774 18.6246 30.8399 15.1873C29.4025 11.75 12.5552 14.0698 12.5552 14.0698L10.7871 16.7999C10.7871 16.7999 8.76026 21.1425 16.1489 24.6788C23.5375 28.2152 42.6848 23.816 42.6848 23.816Z" fill="url(#paint0_linear)"/>
<path d="M59.8695 0L57.4684 9.71662C56.4704 13.7844 52.7966 16.6304 48.5875 16.6304H10.5327L12.9337 6.89937C13.9318 2.84599 17.5912 0 21.8002 0H59.8695Z" fill="url(#paint1_linear)"/>
<path d="M16.0788 23.8369C11.8825 23.8369 8.23409 26.7354 7.23908 30.8428L0 60.9781H10.0078C14.2186 60.9781 17.8814 58.065 18.8908 53.9431L22.0345 40.7034H31.4366C35.633 40.7034 39.2958 37.8049 40.2908 33.683L42.6846 23.8369H16.0788Z" fill="url(#paint2_linear)"/>
<path d="M55.3419 27.6817C54.2437 27.6817 53.7235 28.1024 53.5068 29.1325L52.7988 32.4839H60.2547L59.5901 35.6322H52.1341L50.4001 43.8584H46.0797L49.3742 28.262C49.9089 25.7376 51.9318 24.2142 54.5183 24.2142C57.4515 24.2142 60.7316 24.2142 63.2025 24.5189L62.3066 27.6962H55.3419V27.6817Z" fill="white"/>
<path d="M79.0686 34.0653C77.4069 41.9142 74.7193 44.221 68.5638 44.221C62.4083 44.221 60.7177 41.9287 62.3794 34.0653C64.0411 26.2164 66.6998 23.9095 72.8553 23.9095C79.0109 23.9095 80.7304 26.2164 79.0686 34.0653ZM66.9021 34.0653C65.8039 39.2592 66.3675 40.7246 69.3007 40.7246C72.234 40.7246 73.4189 39.2447 74.517 34.0653C75.6152 28.8714 75.0517 27.406 72.1184 27.406C69.1851 27.406 68.0003 28.8714 66.9021 34.0653Z" fill="white"/>
<path d="M80.4408 43.8438L84.5878 24.2867H88.8649L84.7179 43.8438H80.4408Z" fill="white"/>
<path d="M94.096 38.882C93.8793 39.8976 94.2116 40.3328 95.3098 40.3328H102L101.509 43.6262C98.85 43.9164 95.96 43.9309 93.2002 43.9309C90.0646 43.9309 89.1109 42.1754 89.6167 39.767L92.8967 24.2867H97.1882L94.096 38.882Z" fill="white"/>
<path d="M38.7682 59.9769C38.6815 60.4121 38.407 60.6297 37.9879 60.6297H36.3696C35.9939 60.6297 35.8205 60.4556 35.7482 60.1075L33.3207 50.8947C33.2051 50.4015 32.9884 49.7051 32.945 49.1828H32.6416C32.5838 49.7486 32.4682 50.3289 32.3526 50.8947L30.2863 60.6443H28.639L31.2544 48.2978C31.3411 47.8625 31.6157 47.6449 32.0491 47.6449H33.6097C33.9854 47.6449 34.1588 47.819 34.231 48.1672L36.5719 57.1623C36.7164 57.6846 36.9042 58.41 37.0487 59.0484H37.3666C37.4677 58.3665 37.5833 57.7281 37.7278 57.0752L39.7219 47.6449H41.3547L38.7682 59.9769Z" fill="white"/>
<path d="M43.7824 56.8287C43.4934 59.0194 44.2303 59.4982 46.1088 59.4982C47.0913 59.4982 48.3629 59.4111 49.331 59.266L49.2732 60.3397C48.334 60.7024 46.6723 60.8474 45.6175 60.8474C42.4675 60.8474 41.5283 59.5272 42.2652 56.0017C43.031 52.4037 44.5338 51.214 47.4815 51.214C50.2413 51.214 51.195 52.2296 50.776 54.2172C50.4436 55.8566 49.5622 56.8142 48.045 56.8142H43.7824V56.8287ZM47.8861 55.581C48.7097 55.581 49.0276 54.8991 49.1721 54.2172C49.4033 53.042 48.8975 52.5778 47.2647 52.5778C45.3429 52.5778 44.5627 53.2596 44.028 55.581H47.8861Z" fill="white"/>
<path d="M54.6341 58.1053C54.4462 58.9903 54.7063 59.324 55.6166 59.324H57.0038L56.9315 60.5427C56.2958 60.7168 55.2698 60.7894 54.8074 60.7894C53.2613 60.7894 52.6545 59.9044 52.9868 58.3084L54.1717 52.7083H52.5244L52.7701 51.5331L54.4318 51.4606L55.0097 48.733H56.5992L56.0212 51.4461H58.9545L58.6799 52.7083H55.7756L54.6341 58.1053Z" fill="white"/>
<path d="M69.9214 60.1801C69.7914 60.4558 69.5024 60.6299 69.2134 60.6299H67.7684C67.465 60.6299 67.2483 60.4267 67.2627 60.1221L67.0749 53.8835C67.0604 53.4193 67.0893 52.9405 67.0749 52.4327H66.8437L66.2223 53.8835L63.4191 60.1221C63.2746 60.4267 62.9856 60.6299 62.6677 60.6299H61.2372C60.9338 60.6299 60.7315 60.4558 60.7171 60.1801L59.8934 51.4462H61.5551L62.0175 58.207C62.0464 58.6567 62.0464 59.1355 62.032 59.5853H62.2776L62.9134 58.207L65.76 51.954C65.8756 51.6493 66.1501 51.4462 66.468 51.4462H67.9129C68.2164 51.4462 68.3898 51.6493 68.4042 51.9685L68.5921 58.207C68.5921 58.6567 68.621 59.1065 68.621 59.5853H68.8666C69.0834 59.121 69.2278 58.6858 69.4735 58.207L72.7969 51.4462H74.4441L69.9214 60.1801Z" fill="white"/>
<path d="M83.5041 56.0597C82.7527 59.5852 81.3367 60.891 78.1867 60.891C75.0511 60.891 74.1697 59.5852 74.9066 56.0597C75.6436 52.5488 77.0885 51.2285 80.2241 51.2285C83.3885 51.2285 84.2555 52.5488 83.5041 56.0597ZM76.5828 56.0597C76.0192 58.7293 76.4816 59.5272 78.4757 59.5272C80.4697 59.5272 81.2933 58.7293 81.8569 56.0597C82.4204 53.3902 81.9291 52.5923 79.9495 52.5923C77.9555 52.5923 77.1463 53.3757 76.5828 56.0597Z" fill="white"/>
<path d="M92.2466 52.7374H91.7264C90.7149 52.7374 89.6601 53.1726 88.0562 53.9125L86.6257 60.6443H85.0363L86.9725 51.4606H88.2152L88.0707 52.9115C89.6312 51.8524 91.0906 51.2285 92.3333 51.2285H92.7523L92.2466 52.7374Z" fill="white"/>
<path d="M95.0351 56.0308C94.9773 56.5385 94.9195 57.0318 94.8183 57.4961L94.1537 60.6299H92.5642L95.353 47.4419H96.9713L95.7287 53.3032C95.6131 53.869 95.483 54.3623 95.3096 54.8701H96.5089L100.121 51.4607H101.985L98.4018 54.8411C98.1851 55.0732 97.8239 55.3489 97.636 55.4649L97.6216 55.5085C97.7661 55.639 97.9973 55.9582 98.0984 56.2484L100.338 60.6589H98.4741L96.2778 56.0598H95.0351V56.0308Z" fill="white"/>
<defs>
<linearGradient id="paint0_linear" x1="10.5391" y1="19.6888" x2="42.6882" y2="19.6888" gradientUnits="userSpaceOnUse">
<stop stop-color="#141E30"/>
<stop offset="1" stop-color="#243B55"/>
</linearGradient>
<linearGradient id="paint1_linear" x1="60.0205" y1="0.450459" x2="9.59265" y2="16.6404" gradientUnits="userSpaceOnUse">
<stop stop-color="#21D4FD"/>
<stop offset="1" stop-color="#B721FF"/>
</linearGradient>
<linearGradient id="paint2_linear" x1="52.2486" y1="26.687" x2="3.22015" y2="45.9608" gradientUnits="userSpaceOnUse">
<stop stop-color="#21D4FD"/>
<stop offset="1" stop-color="#B721FF"/>
</linearGradient>
</defs>
</svg>
